Convert discrete data to factors — make_factors • tableone
…
options(old)

# converting a character vector. Here we specify `.character` as a list giving the
# possible levels of `alpha2`. Values outside of this list are converted to `NA`

set.seed(100)
eg_character = tibble::tibble(
  alpha1 =  sample(letters,50,replace=TRUE),
  alpha2 = sample(LETTERS,50,replace=TRUE)
)

eg_character %>%
  make_factors(tidyselect::everything(), .character = list(alpha2 = LETTERS[3:20]))
#> # A tibble: 50 × 2
#>    alpha1 alpha2
#>    <fct>  <fct> 
#>  1 j      NA    
#>  2 w      K     
#>  3 f      G     
#>  4 p      NA    
#>  5 s      I     
#>  6 y      F     
#>  7 z      T     
#>  8 n      N     
#>  9 l      K     
#> 10 w      M     
#> # … with 40 more rows
…
